-------------------------------------------------------------------------------
Test set: br.com.ifpb.hellobaby.HellobabyApplicationTests
-------------------------------------------------------------------------------
Tests run: 1, Failures: 0, Errors: 0, Skipped: 0, Time elapsed: 2.163 s - in br.com.ifpb.hellobaby.HellobabyApplicationTests
